<svg width="30" height="30" viewBox="0 0 30 30" fill="none" xmlns="http://www.w3.org/2000/svg">
<path fill-rule="evenodd" clip-rule="evenodd" d="M4.62326 0H25.3767C27.93 0 30 2.06996 30 4.62326V25.3767C30 27.93 27.93 30 25.3767 30H4.62326C2.06996 30 0 27.93 0 25.3767V4.62326C0 2.06996 2.06996 0 4.62326 0ZM21.7956 16.1949C22.0364 16.504 22.7911 17.1742 23.2547 17.7923C24.3885 18.9944 25.1252 20.006 25.1252 20.5738C25.1252 21.0032 24.8844 21.1236 24.6275 21.1236H22.1047C21.2799 21.1236 21.1775 20.5235 19.6664 19.0806C18.3924 17.8228 17.8462 17.724 17.5371 17.724C17.2622 17.724 17.0736 17.9306 17.0736 18.4104V20.333C17.0736 20.899 16.7465 21.1218 15.4079 21.1218C13.2103 21.1218 10.772 19.7652 8.9195 17.2586C6.15597 13.5338 5.4516 10.7523 5.4516 10.1521C5.4516 9.82511 5.69238 9.6023 6.01761 9.6023H8.26725C8.85122 9.6023 9.07403 9.7748 9.28067 10.3911C10.3103 13.4134 12.1484 16.0727 12.9193 16.0727C13.2104 16.0727 13.2463 15.8319 13.2463 15.2138V12.1412C13.2463 10.6517 12.4054 10.5277 12.4054 9.97784C12.4054 9.76042 12.5779 9.6005 12.851 9.6005H16.4554C16.9352 9.6005 17.0053 9.773 17.0053 10.3552V14.5274C17.0053 15.0036 17.1023 15.1797 17.3143 15.1797C17.5767 15.1797 17.8174 15.0216 18.2936 14.4933C19.7724 12.86 20.9889 10.2707 20.9889 10.2707C21.1434 9.9437 21.3321 9.72089 21.8477 9.72089C22.6024 9.72089 24.0974 9.72089 24.0974 9.72089C24.543 9.72089 24.7335 9.96167 24.6472 10.3911C24.3903 11.5932 21.7974 15.2498 21.7974 15.2498C21.5549 15.6271 21.4524 15.8337 21.7956 16.1949Z" fill="#ADADAD"/>
</svg>
